Assignment 3
…
There are 3 objectives:

Objective 1

The first is to see which station has the most bikes to see where it is the most used and where we should add more bikes.

no_bike_trips_location <- nycbikes18 %>%
  select(start_station_name, bikeid) %>%
  group_by(start_station_name) %>%
  summarise(no_of_bikes_trips = n()) %>%
  filter(no_of_bikes_trips > 0) %>%
  arrange(no_of_bikes_trips)
no_bike_trips_location

#> # A tibble: 59 x 2
#>    start_station_name   no_of_bikes_trips
#>    <chr>                            <int>
#>  1 Columbia Park                       14
#>  2 Danforth Light Rail                 19
#>  3 Bethune Center                      24
#>  4 Bayside Park                        34
#>  5 West Side Light Rail                42
#>  6 MLK Light Rail                      47
#>  7 JCBS Depot                          49
#>  8 NJCU                                49
#>  9 Garfield Ave Station               155
#> 10 Jackson Square                     344
#> # ... with 49 more rows
…
The most popular place for a journey to start is at Grove St Path. This means that we should be hyper aware of when there are no more bikes left and when it needs to be repopulated. The most suitable times to be hyper aware and to check are shown in Assignment 2 Question 10. For weekdays we look at Subscribers and for weekends we look at Customers for when the bikes need to be replenished.

Objective 2

The second is to check how long the top 50 bikes has been ridden on to check whether we need to replace it or need to check for maintenance.

trip_duration <- nycbikes18 %>%
  select(bikeid, tripduration) %>%
  group_by(bikeid) %>%
  summarise(time = round(sum(tripduration) / 60 / 60)) %>%
  arrange(desc(time)) %>%
  slice(1:50)
trip_duration

#> # A tibble: 50 x 2
#>    bikeid  time
#>     <dbl> <dbl>
#>  1  26159   655
#>  2  26262   418
#>  3  29438   400
#>  4  26210   353
#>  5  29647   339
#>  6  26211   302
#>  7  33632   299
#>  8  33658   250
#>  9  29273   243
#> 10  33615   224
#> # ... with 40 more rows
…
Bikes that have 300 hours should be checked for maintenance and to see if it needs to be replaced.

Objective 3

The 3rd is to check when is there the most customers interest and how would we be able to provide more amenities so that we are able to attract more tourists. I have used other sources such as Google trends to see if the interest in the number of searches corresponds to the number of customers that are cycling during the same time. And to see if the amount searched and the number that was ridden have the same rates.

customer_rides <- nycbikes18 %>%
  mutate(week = week(starttime)) %>%
  filter(usertype %in% "Customer") %>%
  group_by(week) %>%
  summarise(week, no_of_rides = n()) %>%
  distinct()
customer_rides

#> # A tibble: 48 x 2
#> # Groups:   week [48]
#>     week no_of_rides
#>    <dbl>       <int>
#>  1     1           6
#>  2     2          23
#>  3     3         107
#>  4     4          42
#>  5     5          20
#>  6     6          25
#>  7     7          61
#>  8     8          71
#>  9     9          56
#> 10    10          71
#> # ... with 38 more rows

google_search

#> # A tibble: 52 x 3
#>    Week       no_search weekid
#>    <date>         <dbl>  <int>
#>  1 2018-01-07        22      1
#>  2 2018-01-14        20      2
#>  3 2018-01-21        27      3
#>  4 2018-01-28        20      4
#>  5 2018-02-04        22      5
#>  6 2018-02-11        27      6
#>  7 2018-02-18        38      7
#>  8 2018-02-25        44      8
#>  9 2018-03-04        23      9
#> 10 2018-03-11        33     10
#> # ... with 42 more rows
…
